LING 0700 | PSYC 2314 - Model fitting
…
}
error_surf <- possible_weights %>% 
    rowwise() %>%
    mutate(sum_sq =  sum_squares(b0, b1)) %>%
    ungroup

error_surf

# A tibble: 961 × 3
      b0    b1 sum_sq
   <dbl> <dbl>  <dbl>
 1   0       0   42.0
 2   0.1     0   39.3
 3   0.2     0   36.8
 4   0.3     0   34.3
 5   0.4     0   32.0
 6   0.5     0   29.7
 7   0.6     0   27.6
 8   0.7     0   25.5
 9   0.8     0   23.6
10   0.9     0   21.7
# ℹ 951 more rows
…
